simulation/qsim/comp4_jiegou.msim.vcd
$comment
	File created using the following command:
		vcd file comp4_jiegou.msim.vcd -direction
$end
$date
	Sun Nov 14 16:50:59 2021
$end
$version
	ModelSim Version 10.5b
$end
$timescale
	1ps
$end

$scope module comp4_jiegou_vlg_vec_tst $end
$var reg 4 ! a [3:0] $end
$var reg 4 " b [3:0] $end
$var reg 4 # c [3:0] $end
$var reg 4 $ d [3:0] $end
$var wire 1 % max [3] $end
$var wire 1 & max [2] $end
$var wire 1 ' max [1] $end
$var wire 1 ( max [0] $end
$var wire 1 ) min [3] $end
$var wire 1 * min [2] $end
$var wire 1 + min [1] $end
$var wire 1 , min [0] $end

$scope module i1 $end
$var wire 1 - gnd $end
$var wire 1 . vcc $end
$var wire 1 / unknown $end
$var tri1 1 0 devclrn $end
$var tri1 1 1 devpor $end
$var tri1 1 2 devoe $end
$var wire 1 3 max[0]~output_o $end
$var wire 1 4 max[1]~output_o $end
$var wire 1 5 max[2]~output_o $end
$var wire 1 6 max[3]~output_o $end
$var wire 1 7 min[0]~output_o $end
$var wire 1 8 min[1]~output_o $end
$var wire 1 9 min[2]~output_o $end
$var wire 1 : min[3]~output_o $end
$var wire 1 ; d[0]~input_o $end
$var wire 1 < c[0]~input_o $end
$var wire 1 = a[1]~input_o $end
$var wire 1 > b[0]~input_o $end
$var wire 1 ? b[1]~input_o $end
$var wire 1 @ a[0]~input_o $end
$var wire 1 A LessThan0~1_combout $end
$var wire 1 B a[2]~input_o $end
$var wire 1 C b[2]~input_o $end
$var wire 1 D a[3]~input_o $end
$var wire 1 E b[3]~input_o $end
$var wire 1 F LessThan0~0_combout $end
$var wire 1 G LessThan0~2_combout $end
$var wire 1 H LessThan0~3_combout $end
$var wire 1 I max1[0]~0_combout $end
$var wire 1 J max1[2]~2_combout $end
$var wire 1 K c[2]~input_o $end
$var wire 1 L max1[1]~3_combout $end
$var wire 1 M c[1]~input_o $end
$var wire 1 N LessThan1~0_combout $end
$var wire 1 O LessThan1~1_combout $end
$var wire 1 P c[3]~input_o $end
$var wire 1 Q max1[3]~1_combout $end
$var wire 1 R LessThan1~2_combout $end
$var wire 1 S max2[0]~4_combout $end
$var wire 1 T max2[3]~7_combout $end
$var wire 1 U d[3]~input_o $end
$var wire 1 V max2[2]~5_combout $end
$var wire 1 W d[1]~input_o $end
$var wire 1 X max2[1]~6_combout $end
$var wire 1 Y LessThan2~0_combout $end
$var wire 1 Z d[2]~input_o $end
$var wire 1 [ LessThan2~1_combout $end
$var wire 1 \ LessThan2~2_combout $end
$var wire 1 ] max3~2_combout $end
$var wire 1 ^ max3~3_combout $end
$var wire 1 _ max3~4_combout $end
$var wire 1 ` max3~5_combout $end
$var wire 1 a LessThan3~0_combout $end
$var wire 1 b LessThan3~1_combout $end
$var wire 1 c LessThan3~2_combout $end
$var wire 1 d min1[0]~0_combout $end
$var wire 1 e min1[3]~2_combout $end
$var wire 1 f min1[1]~3_combout $end
$var wire 1 g LessThan4~0_combout $end
$var wire 1 h min1[2]~1_combout $end
$var wire 1 i LessThan4~1_combout $end
$var wire 1 j LessThan4~2_combout $end
$var wire 1 k min2[0]~4_combout $end
$var wire 1 l min2[3]~7_combout $end
$var wire 1 m min2[2]~5_combout $end
$var wire 1 n min2[1]~6_combout $end
$var wire 1 o LessThan5~0_combout $end
$var wire 1 p LessThan5~1_combout $end
$var wire 1 q LessThan5~2_combout $end
$var wire 1 r min3~2_combout $end
$var wire 1 s min3~3_combout $end
$var wire 1 t min3~4_combout $end
$var wire 1 u min3~5_combout $end
$upscope $end
$upscope $end
$enddefinitions $end
#0
$dumpvars
b10 !
b1000 "
b1100 #
b111 $
0(
0'
1&
1%
0,
1+
0*
0)
0-
1.
x/
10
11
12
03
04
15
16
07
18
09
0:
1;
0<
1=
0>
0?
0@
1A
0B
0C
0D
1E
0F
0G
0H
0I
0J
1K
0L
0M
0N
0O
1P
1Q
0R
0S
1T
0U
1V
1W
0X
0Y
1Z
0[
1\
0]
0^
1_
1`
1a
0b
1c
0d
0e
1f
0g
0h
1i
1j
0k
0l
0m
1n
1o
1p
1q
0r
1s
0t
0u
$end
#10000
b11 !
1@
1d
1k
0o
1r
17
1,
#20000
b111 !
b101 !
b1010 "
b100 !
1?
0@
0=
1B
0f
1b
1L
0A
0d
1h
0n
1N
0k
1m
0i
1o
0p
0s
0r
1t
19
07
08
1p
0q
0+
0,
1*
1q
1s
1r
17
18
1+
1,
0s
0r
07
08
0+
0,
#30000
b100 #
b0 #
b1 #
b101 !
1@
1<
0K
0P
1d
1g
1S
0V
1O
0j
1R
1k
0g
0m
1X
0S
1]
0_
05
13
1(
0&
1r
0t
1^
0]
03
14
09
17
1,
0*
1'
0(
#40000
b1110 "
b1111 $
b1110 $
b111 !
b1100 "
b110 !
0@
1=
0;
1U
0?
1C
0d
0b
1A
1f
0L
0\
1J
0X
0N
1V
1_
15
1&
#50000
b111 !
1@
1d
#60000
b1111 !
b11 #
b1011 !
b111 #
b110 #
b1001 !
b1110 "
b1000 !
1?
0<
1M
1K
0@
0=
0B
1D
0f
1b
1L
0A
0k
1n
1m
0O
0d
0h
1e
1g
1X
0o
1i
0r
1s
1t
19
18
07
0p
0,
1+
1*
#70000
b1001 !
1@
1d
#80000
b110 "
b1100 $
b10 "
b100 $
b101 $
b1011 !
b0 "
b1010 !
0@
1=
1;
0W
0U
0?
0C
0E
0d
0b
1A
1f
0L
1Y
0q
1\
0a
0J
1F
0T
0Q
1]
0^
04
13
0g
0c
1H
0X
1[
0V
0\
0R
1(
0'
0s
1r
1^
0]
0`
06
03
14
17
08
0f
0e
1T
1Q
1L
0Y
1\
0[
1X
1V
0+
1,
1'
0(
0%
0^
1]
13
04
1g
1j
1R
1Y
0'
1(
1`
1^
0]
03
14
16
0n
0m
0V
1[
1%
1'
0(
1o
1p
0[
0_
05
1q
0&
0t
0r
07
09
0*
0,
#90000
b1110 #
b1010 #
b1011 #
b1011 !
1@
1<
0K
1P
1I
0R
1S
1]
13
1(
#100000
b1111 !
b1101 !
b10 "
b1100 !
1?
0@
0=
1B
1f
1b
0L
0A
0I
1J
1n
1O
0o
1R
1s
18
0X
1V
0S
1+
0Y
1[
0^
1_
0]
03
15
04
0[
0'
1&
0(
#110000
b1101 !
1@
1I
1S
1]
13
1(
#120000
b1001 #
b110 "
b1101 $
b1100 $
b1 #
b0 #
b1111 !
b100 "
b1110 !
0@
1=
0;
1U
0?
1C
0<
0M
0P
0b
0I
1A
0f
1L
1Y
0\
1h
0g
1N
0S
0n
1X
1[
1m
0i
0]
03
1\
0p
0j
0(
0s
1t
19
08
0m
0+
1*
1^
14
1p
1'
0t
09
0*
#130000
b1111 !
1@
1I
1S
1]
13
1(
#140000
b111 !
b11 !
b1 !
b110 "
b0 !
1?
0@
0=
0B
0D
1f
1b
0L
0A
0I
1a
0J
0F
0T
0Q
1c
0X
0N
0H
0S
0V
0\
0h
0f
0Y
0O
1L
1J
0[
0^
0]
03
04
0R
1X
1N
1V
1O
0'
0(
0X
0V
1Y
1R
0Y
1X
1V
1Y
1[
#150000
b100 #
b101 #
b1 !
1@
1<
1K
1d
1k
1g
1m
1i
0g
0p
1j
1r
1t
19
17
0m
1,
1*
1p
0t
09
0*
#160000
b1000 $
b1110 "
b1010 $
b1010 "
b10 $
b11 $
b11 !
b1000 "
b10 !
0@
1=
0?
0C
1E
1;
1W
0Z
0U
0d
0b
1A
1f
0L
0J
1T
1Q
1o
0Y
0p
1\
1]
1^
0_
0`
06
05
14
13
0k
1n
0X
0N
0V
0O
1p
0q
1(
1'
0&
0%
1`
1_
0]
03
15
16
0[
1q
1%
1&
0(
1s
0^
0_
05
04
18
1+
0'
0&
0r
07
0,
#170000
b11 !
1@
1d
1k
0o
1r
17
0p
1,
0q
#180000
b111 #
b1111 #
b111 !
b1011 #
b1010 #
b101 !
b1010 "
b100 !
1?
0@
0=
1B
0<
1M
0K
1P
0f
1b
1L
0A
0d
1h
0i
0R
0n
1g
1X
0k
1m
1o
1^
14
1'
#190000
b101 !
1@
1d
1k
#200000
b1110 "
b1011 $
b1010 $
b111 !
b1100 "
b110 !
0@
1=
0;
1U
0?
1C
0d
0b
1A
1f
0L
1q
0\
1J
0r
07
0k
0g
1n
1O
0,
1t
0s
1r
17
08
19
0o
1R
1*
0+
1,
0r
1s
18
07
0X
1V
0,
1+
1[
1\
1_
0^
04
15
1&
0'
#210000
b1110 #
b1111 #
b111 !
1@
1<
1K
1d
1g
0O
1k
0g
1i
0R
0i
1X
1S
1r
17
1Y
1,
1^
1]
13
14
1'
1(
#220000
b1111 !
b1011 !
b1001 !
b1110 "
b1000 !
1?
0@
0=
0B
1D
0f
1b
1L
0A
0d
0h
1l
1e
0n
1g
0k
0m
1i
0q
0j
1u
1:
1o
1j
1n
1m
1k
1)
0r
0t
09
07
0n
0m
0k
0o
0,
0*
1o
1p
1q
0s
08
0+
#230000
b1001 !
1@
1d
1k
1r
17
1,
#240000
b110 "
b1000 $
b1101 #
b101 #
b10 "
b0 $
b1 $
b100 #
b1011 !
b0 "
b1010 !
0@
1=
0<
0M
0P
1;
0W
0U
0?
0C
0E
0d
0b
1A
1f
0L
0g
0S
1N
0X
0l
0j
0T
1R
0o
0q
0a
0J
1F
0Q
0u
0:
0k
0c
1H
0N
0Y
1q
1m
0V
0p
0R
0)
0]
0^
0`
06
04
03
1o
0f
0e
1T
1Q
1L
0[
0q
1V
0(
0'
0%
0r
1t
0_
05
19
07
1j
1R
1N
1[
0,
1*
0&
1`
0t
1r
1_
15
17
09
16
0m
1X
0V
1%
0*
1,
1&
1p
1Y
0[
1^
0_
05
14
1q
1[
1'
0&
0r
07
0,
#250000
b1011 !
1@
1I
1S
1]
13
1(
#260000
b1111 !
b1101 !
b10 "
b1100 !
1?
0@
0=
1B
1f
1b
0L
0A
0I
1J
1n
0X
0N
0S
1V
1O
0o
0Y
0O
1s
0^
0]
1_
15
03
04
18
0p
1+
0'
0(
1&
0q
0s
1r
17
08
0+
1,
#270000
b0 #
b1000 #
b1001 #
b1101 !
1@
1<
0K
1P
1I
0i
1O
0R
1S
1R
0V
1V
0[
1]
0_
05
13
1[
1(
0&
1_
15
1&
#280000
b110 "
b1001 $
b1000 $
b1111 !
b100 "
b1110 !
0@
1=
0;
1U
0?
1C
0b
0I
1A
0f
1L
1Y
1q
1h
0r
07
0S
1N
0n
1g
1X
1m
0,
1s
18
1+
0]
0s
1^
1t
19
14
08
03
0(
0+
1'
1*
#290000
b1111 !
1@
1I
1S
1]
13
1(
#300000
b111 !
b1011 #
b11 !
b1111 #
b1110 #
b1 !
b110 "
b0 !
1?
0<
1M
1K
0@
0=
0B
0D
1f
1b
0L
0A
1i
0I
1a
0J
0F
0Q
1n
0g
1c
0X
0N
0H
0S
0V
0O
0R
0i
0h
0f
0Y
1L
1J
1X
1V
1s
0^
0]
0_
05
03
04
18
0m
1i
0n
1g
1Y
1+
0'
0(
0&
1^
1_
15
14
1'
1&
0t
0s
08
09
0*
0+
#310000
b1 !
1@
1d
1k
1r
17
1,
#320000
b1100 $
b1110 "
b1110 $
b1010 "
b1111 $
b11 !
b1000 "
b10 !
0@
1=
0?
0C
1E
1;
1W
1Z
0d
0b
1A
1f
0L
0J
1Q
1o
0Y
1p
0k
0g
1n
0[
0\
0r
1s
18
07
0,
1+
1]
13
1(
#330000
b110 #
b10 #
b11 #
b11 !
1@
1<
0K
0P
1d
1g
1S
0i
0V
1R
1k
0g
1i
0j
0X
0S
0o
0i
1j
1r
17
0j
1,
#340000
b111 !
b101 !
b1010 "
b100 !
1?
0@
0=
1B
0f
1b
1L
0A
0d
1h
1g
1X
#350000
b101 !
1@
1d
#360000
b111 $
b1 #
b1110 "
b110 $
b1001 #
b1000 #
b111 !
b1100 "
b110 !
0@
1=
0?
1C
0<
0M
1P
0;
0U
0d
0b
1A
1f
0L
1J
0k
0g
1N
0n
1j
0R
1\
0]
03
1n
0X
0N
1O
1o
1m
0(
0r
0s
0_
05
08
07
0o
1R
0,
0+
0&
1s
0^
1t
19
04
18
0p
1V
1+
0'
1*
0q
1_
15
1&
#370000
b111 !
1@
1d
1k
#380000
b1111 !
b1011 !
b1001 !
b1110 "
b1000 !
1?
0@
0=
0B
1D
0f
1b
1L
0A
0d
0h
1l
1e
0n
1X
1N
0k
0m
0j
1o
1p
1^
14
1'
#390000
b1100 #
b1101 #
b1001 !
1@
1<
1K
1d
1k
1g
1m
1i
0g
1j
0m
#400000
b110 "
b100 $
b1100 $
b10 "
b1101 $
b1011 !
b0 "
b1010 !
0@
1=
1;
0W
1U
0?
0C
0E
0d
0b
1A
1f
0L
0o
1Y
1q
0\
0a
0J
1F
0Q
1r
0s
1u
1:
08
17
0k
0c
1H
1n
0X
0N
1[
0V
0O
0R
1,
0+
1)
0t
0^
1]
13
04
09
0l
0f
0e
1Q
1L
0Y
1\
0[
1V
1S
0*
0'
1(
0r
1s
18
07
0n
1g
1N
0\
0,
1+
0u
0:
1o
0)
0s
08
0+
#410000
b1011 !
1@
1I
#420000
b1111 #
b111 #
b1111 !
b11 #
b10 #
b1101 !
b10 "
b1100 !
1?
0@
0=
1B
0<
1M
0K
0P
1f
1b
0L
0A
0I
1J
0S
1X
0V
1O
1R
1n
0g
0X
0N
1V
1Y
0o
0i
0Y
1[
1s
18
0j
0[
1\
1+
0\
0]
03
0(
1]
13
1(
#430000
b1101 !
1@
1I
1S
#440000
b101 $
b110 "
b100 $
b1111 !
b100 "
b1110 !
0@
1=
0?
1C
0;
0U
0b
0I
1A
0f
1L
1h
1Y
1\
0]
03
0S
1g
1X
1[
0(
1]
13
1(
0]
1^
14
03
0(
1'
#450000
b110 #
b111 #
b1111 !
1@
1<
1K
1I
1k
1m
1i
0O
1S
0p
1j
1r
1t
19
17
0q
0n
0k
1,
1*
1]
13
1(
0s
0r
07
08
0+
0,
#460000
b111 !
b11 !
b1 !
b110 "
b0 !
1?
0@
0=
0B
0D
1f
1b
0L
0A
0I
1a
0J
0F
0T
0Q
1n
1c
0X
0H
0S
0V
0R
0`
06
0h
0f
0Y
1L
1J
0[
1X
1V
1S
0%
0^
0]
0_
05
03
04
0m
0n
0\
1Y
0'
0(
0&
1^
1_
1]
13
15
14
1p
1[
1'
1&
1(
0^
0]
03
04
1q
1\
0'
0(
0t
1^
1]
13
14
09
0*
1'
1(
#470000
b1 !
1@
1d
1k
1r
17
1,
#480000
b0 $
b1110 "
b10 $
b101 #
b1101 #
b1010 $
b1010 "
b1011 $
b1100 #
b11 !
b1000 "
b10 !
0@
1=
0<
0M
1P
0?
0C
1E
1;
1W
0Z
1U
0d
0b
1A
1f
0L
0g
0S
1N
0X
1T
0J
1Q
1o
0Y
0p
0\
1`
16
0k
1n
0N
1\
1p
1%
0_
05
0&
0r
1s
1_
0^
0]
03
04
15
18
07
0,
1+
1&
0'
0(
#490000
b11 !
1@
1d
1k
0o
1r
17
0p
1,
#500000
b111 !
b101 !
b1010 "
b100 !
1?
0@
0=
1B
0f
1b
1L
0A
0d
1h
0n
1N
0k
1m
0i
1o
0s
0r
1t
19
07
08
0+
0,
1*
#510000
b1000 #
b0 #
b1 #
b101 !
1@
1<
0K
0P
1d
1g
1S
0V
1O
0j
1R
1k
0g
0[
0m
1X
0S
1]
0_
05
13
0\
1p
1(
0&
1r
0t
1^
0]
03
14
09
17
1,
0*
1'
0(
1]
13
1(
#520000
b11 $
b1110 "
b10 $
b111 !
b1100 "
b110 !
0@
1=
0?
1C
0;
0U
0d
0b
1A
1f
0L
1J
1\
0]
03
0X
0N
1V
0(
1[
0^
1_
15
04
0'
1&
#530000
b111 !
1@
1d
#540000
b1111 !
b11 #
b1011 !
b111 #
b110 #
b1001 !
b1110 "
b1000 !
1?
0<
1M
1K
0@
0=
0B
1D
0f
1b
1L
0A
0k
1n
1m
0O
0d
0h
1e
1g
1X
0o
0p
1i
0r
1s
1t
19
18
07
0q
0,
1+
1*
1^
14
1'
0t
09
0*
#550000
b1001 !
1@
1d
#560000
b110 "
b0 $
b1000 $
b10 "
b1001 $
b1011 !
b0 "
b1010 !
0@
1=
1;
0W
1U
0?
0C
0E
0d
0b
1A
1f
0L
1Y
1q
0a
0J
1F
0T
0Q
1r
0s
08
17
0g
0c
1H
0X
0V
0\
0R
1,
0+
1t
1s
0r
07
18
19
0f
0e
1T
1Q
1L
0Y
1X
1V
1*
1+
0,
0^
0_
1]
13
05
04
1g
1j
1\
1R
1Y
0'
0&
1(
0n
0m
0V
1_
1^
0]
03
14
15
1o
1&
1'
0(
0s
0t
0_
05
09
08
1p
0+
0*
0&
#570000
b1110 #
b1010 #
b1011 #
b1011 !
1@
1<
0K
1P
1I
0R
1S
1]
13
1(
#580000
b1111 !
b1101 !
b10 "
b1100 !
1?
0@
0=
1B
1f
1b
0L
0A
0I
1J
1n
1O
0o
1R
1s
18
0p
0X
1V
0S
1+
0Y
0^
1_
0]
03
15
04
0'
1&
0(
#590000
b1101 !
1@
1I
1S
1]
13
1(
#600000
b1001 #
b1 $
b110 "
b0 $
b1 #
b0 #
b1111 !
b100 "
b1110 !
0@
1=
0?
1C
0;
0U
0<
0M
0P
0b
0I
1A
0f
1L
1h
1Y
0q
0g
1N
0S
0n
1X
1m
0i
0s
08
0j
0+
0]
1^
14
03
0m
0(
1'
#610000
b1111 !
1@
1I
1S
1]
13
1(
#620000
b111 !
b11 !
b1 !
b110 "
b0 !
1?
0@
0=
0B
0D
1f
1b
0L
0A
0I
1a
0J
0F
0T
0Q
1c
0X
0N
0H
0S
0V
0`
06
0h
0f
0Y
0O
1L
1J
0%
0^
0]
0_
05
03
04
0[
0R
1X
1N
1V
1O
0'
0(
0&
0\
0X
0V
1Y
1[
1R
1^
1_
15
14
0Y
1\
1X
1V
1'
1&
0_
0^
04
05
1Y
0&
0'
1_
1^
14
15
1&
1'
#630000
b100 #
b101 #
b1 !
1@
1<
1K
1d
1k
1g
1m
1i
0g
1j
0m
#640000
b100 $
b1110 "
b110 $
b1010 "
b111 $
b11 !
b1000 "
b10 !
0@
1=
0?
0C
1E
1;
1W
1Z
0d
0b
1A
1f
0L
0J
1T
1Q
1o
0Y
1p
1r
1s
1t
19
18
17
0k
1n
0X
0N
0V
0O
0[
1q
1,
1+
1*
1`
16
1%
0r
0^
0_
0t
09
05
04
07
0,
0'
0&
0*
#650000
b11 !
1@
1d
1k
0o
1r
17
1,
#660000
b111 #
b1111 #
b111 !
b1011 #
b1010 #
b101 !
b1010 "
b100 !
1?
0@
0=
1B
0<
1M
0K
1P
0f
1b
1L
0A
0d
1h
0i
0R
0n
1g
1X
0k
1m
1o
0p
0s
1^
0r
1t
19
07
14
08
1p
0q
0+
1'
0,
1*
1q
1s
1r
17
18
1+
1,
0s
0r
07
08
0+
0,
#670000
b101 !
1@
1d
1k
1r
17
1,
#680000
b1111 $
b1110 "
b1110 $
b111 !
b1100 "
b110 !
0@
1=
0?
1C
0;
1U
0d
0b
1A
1f
0L
1J
0\
0k
0g
1n
1O
1_
15
0o
1R
1&
0r
1s
18
07
0p
0X
1V
0,
1+
#690000
b1110 #
b1111 #
b111 !
1@
1<
1K
1d
1g
0O
1k
0g
1i
0R
0i
1X
1S
1r
17
1Y
1,
1[
1\
1]
13
1(
#700000
b1111 !
b1011 !
b1001 !
b1110 "
b1000 !
1?
0@
0=
0B
1D
0f
1b
1L
0A
0d
0h
1l
1e
0n
1g
0k
0m
1i
0q
0j
1u
1:
1o
1p
1j
1n
1m
1k
1)
0r
07
1q
0n
0m
0k
0o
0,
1o
0t
0s
08
09
0*
0+
#710000
b1001 !
1@
1d
1k
1r
17
1,
#720000
b110 "
b1100 $
b1101 #
b101 #
b100 $
b10 "
b101 $
b100 #
b1011 !
b0 "
b1010 !
0@
1=
0<
0M
0P
1;
0W
0U
0?
0C
0E
0d
0b
1A
1f
0L
0g
0S
1N
0X
0l
0j
0T
1R
0o
0q
0a
0J
1F
0Q
0u
0:
0k
0c
1H
0N
0Y
1q
1m
0V
0R
0)
0]
0^
0`
1t
19
06
04
03
1o
0f
0e
1T
1Q
1L
0[
0p
1V
0(
0'
0%
1*
0r
0_
05
07
1p
1j
1R
1N
0q
0,
0&
1`
1_
15
16
1q
0m
1X
0V
1%
1&
1r
17
1Y
1,
0t
0r
1^
0_
05
14
07
09
0*
0,
1'
0&
#730000
b1011 !
1@
1I
1S
1]
13
1(
#740000
b1111 !
b1101 !
b10 "
b1100 !
1?
0@
0=
1B
1f
1b
0L
0A
0I
1J
1n
0X
0N
0S
1V
1O
0o
0Y
0O
1[
1s
0^
0]
1_
15
03
04
18
0[
1+
0'
0(
1&
#750000
b0 #
b1000 #
b1001 #
b1101 !
1@
1<
0K
1P
1I
0i
1O
0R
1S
1R
0V
1V
1]
0_
05
13
1(
0&
1_
15
1&
#760000
b1101 $
b110 "
b1100 $
b1111 !
b100 "
b1110 !
0@
1=
0?
1C
0;
1U
0b
0I
1A
0f
1L
1h
1Y
0\
0S
1N
0n
1g
1X
1m
1[
0]
03
0p
1\
0(
0s
1t
19
08
0+
1*
1^
14
1'
#770000
b1111 !
1@
1I
1S
1]
13
1(
#780000
b111 !
b1011 #
b11 !
b1111 #
b1110 #
b1 !
b110 "
b0 !
1?
0<
1M
1K
0@
0=
0B
0D
1f
1b
0L
0A
1i
0I
1a
0J
0F
0Q
1n
0g
1c
0X
0N
0H
0S
0V
0O
0R
0i
0h
0f
0Y
1L
1J
0[
1X
1V
1s
0^
0]
0_
05
03
04
18
0m
1i
0n
1g
0\
1Y
1+
0'
0(
0&
1^
1_
15
14
1p
1[
1'
1&
0t
0s
0^
04
08
09
1\
0*
0+
0'
1^
14
1'
#790000
b1 !
1@
1d
1k
1r
17
1,
#800000
b1000 $
b1110 "
b1010 $
b10 $
b1010 "
b11 $
b11 !
b1000 "
b10 !
0@
1=
0?
0C
1E
1;
1W
0Z
0U
0d
0b
1A
1f
0L
0J
1Q
1o
0Y
0p
0k
0g
1n
1p
0q
1q
1s
18
1+
0r
07
0,
#810000
b110 #
b10 #
b11 #
b11 !
1@
1<
0K
0P
1d
1g
1S
0i
0V
1R
1k
0g
1i
0j
0[
0X
0S
1]
0_
05
13
0o
0i
1j
1(
0&
1r
0^
0]
03
04
17
0p
0j
1,
0'
0(
0q
#820000
b111 !
b101 !
b1010 "
b100 !
1?
0@
0=
1B
0f
1b
1L
0A
0d
1h
1g
1X
1^
14
1'
#830000
b101 !
1@
1d
#840000
b1 #
b1011 $
b1110 "
b1010 $
b1001 #
b1000 #
b111 !
b1100 "
b110 !
0@
1=
0?
1C
0;
1U
0<
0M
1P
0d
0b
1A
1f
0L
1J
1q
0\
0k
0g
1N
0n
1j
0R
0r
07
1n
0X
0N
1O
1o
1m
0,
0s
08
0o
1R
0+
1s
1t
19
18
1V
1+
1*
1[
1\
1_
0^
04
15
1&
0'
#850000
b111 !
1@
1d
1k
1r
17
1,
#860000
b1111 !
b1011 !
b1001 !
b1110 "
b1000 !
1?
0@
0=
0B
1D
0f
1b
1L
0A
0d
0h
1l
1e
0n
1X
1N
0k
0m
0q
0j
1u
1:
1o
1)
1^
0r
0t
09
07
14
1p
1'
0,
0*
1q
0s
08
0+
#870000
b1100 #
b1101 #
b1001 !
1@
1<
1K
1d
1k
1g
1m
1i
0g
0p
1j
1r
1t
19
17
0q
0m
1,
1*
1p
0t
1s
0r
07
18
09
1q
0*
1+
0,
0s
1r
17
08
0+
1,
#880000
b110 "
b1000 $
b0 $
b10 "
b1 $
b1011 !
b0 "
b1010 !
0@
1=
1;
0W
0U
0?
0C
0E
0d
0b
1A
1f
0L
0o
1Y
0q
0a
0J
1F
0Q
0u
0:
0k
0c
1H
1n
0X
0N
0p
0V
0O
0R
0)
0l
0f
0e
1Q
1L
0Y
1V
1S
0^
0_
05
04
0n
1g
1N
0'
0&
1_
1]
13
15
1o
1&
1(
1p
1q
0r
07
0,
#890000
b1011 !
1@
1I
#900000
b1111 #
b111 #
b1111 !
b11 #
b10 #
b1101 !
b10 "
b1100 !
1?
0@
0=
1B
0<
1M
0K
0P
1f
1b
0L
0A
0I
1J
0S
1X
0V
1O
1R
1n
0g
0X
0N
1V
1Y
0[
0]
1^
0_
05
14
03
0o
0i
0Y
1[
0(
1'
0&
1s
0^
1_
15
04
18
0p
0j
1+
0'
1&
0q
0s
1r
17
08
0+
1,
#910000
b1101 !
1@
1I
1S
1]
13
1(
#920000
b1001 $
b110 "
b1000 $
b1111 !
b100 "
b1110 !
0@
1=
0?
1C
0;
1U
0b
0I
1A
0f
1L
1h
1Y
1q
0r
07
0S
1g
1X
0,
1s
18
1+
0]
1^
14
03
0(
1'
#930000
b110 #
b111 #
b1111 !
1@
1<
1K
1I
1k
1m
1i
0O
1S
1j
1r
1t
19
17
0n
0k
1,
1*
1]
13
1(
0s
0r
07
08
0+
0,
#940000
b111 !
b11 !
b1 !
b110 "
b0 !
1?
0@
0=
0B
0D
1f
1b
0L
0A
0I
1a
0J
0F
0T
0Q
1n
1c
0X
0H
0S
0V
0\
0R
0h
0f
0Y
1L
1J
1X
1V
1S
1s
0^
0]
0_
05
03
04
18
0m
0n
1Y
1+
0'
0(
0&
0t
0s
08
09
0*
0+
#950000
b1 !
1@
1d
1k
1r
17
1,
#960000
b1100 $
b1110 "
b1110 $
b101 #
b1101 #
b1010 "
b1111 $
b1100 #
b11 !
b1000 "
b10 !
0@
1=
0<
0M
1P
0?
0C
1E
1;
1W
1Z
0d
0b
1A
1f
0L
0g
0S
1N
0X
1T
0J
1Q
1o
0Y
1p
1]
1^
1_
15
14
13
0k
1n
0N
1\
0[
1(
1'
1&
0\
0r
1s
0^
0]
03
04
18
07
0,
1+
0'
0(
1^
1]
13
14
1'
1(
#970000
b11 !
1@
1d
1k
0o
1r
17
1,
#980000
b111 !
b101 !
b1010 "
b100 !
1?
0@
0=
1B
0f
1b
1L
0A
0d
1h
0n
1N
0k
1m
0i
1o
0p
0s
0r
1t
19
07
08
1p
0+
0,
1*
#990000
b1000 #
b0 #
b1 #
b101 !
1@
1<
0K
0P
1d
1g
1S
0V
1O
0j
1R
1k
0g
0m
1X
0S
1r
0t
09
17
1,
0*
